\relax 
\citation{BostonConsulting}
\citation{PlatformChoices}
\citation{Mirai}
\citation{TopFiveAttacks}
\citation{JeepChrysler}
\@writefile{toc}{\contentsline {section}{\numberline {1}Introduction}{7}}
\citation{hypriotos}
\citation{django}
\@writefile{lof}{\contentsline {figure}{\numberline {1}{\ignorespaces \textit  {Raspberry Pi 3 Model B, designed by the Raspberry Pi Foundation.}\relax }}{9}}
\citation{TwentyConsiderations}
\citation{DDoSInIoT}
\@writefile{toc}{\contentsline {section}{\numberline {2}Background}{10}}
\citation{HPStudy}
\citation{AbbottPacemaker}
\@writefile{toc}{\contentsline {subsection}{\numberline {2.1}Current Shortcomings}{11}}
\citation{OwletBabyMonitor}
\citation{TrendnetWebcam}
\citation{IoTisWildlyInsecure}
\citation{RunningContainersOnBareMetal}
\@writefile{toc}{\contentsline {subsection}{\numberline {2.2}Containerization}{13}}
\citation{ContainerBasedEdgeCloud}
\@writefile{lof}{\contentsline {figure}{\numberline {2}{\ignorespaces \textit  {Comparison between virtual machines and containers.}\relax }}{14}}
\citation{EvaluationOfDocker}
\citation{EvaluatingPerformance}
\citation{DockerSecurity}
\citation{DockerSwarmOverview}
\citation{SecurityConsiderationsDockerSwarm}
\citation{DockerVSKubernetesVSMesos}
\citation{DockerVSKubernetes}
\citation{Mesos}
\citation{SSLAndTLSDeploymentBestPractices}
\@writefile{toc}{\contentsline {subsection}{\numberline {2.3}Certification}{17}}
\citation{CertificateRevocationBroken}
\citation{IIoT}
\@writefile{lof}{\contentsline {figure}{\numberline {3}{\ignorespaces \textit  {A certificate chain, consisting of three certificates, one intermediate CA, and one root CA.}\relax }}{18}}
\citation{Editorial}
\citation{FogMakesSense}
\citation{ResinHowItWorks}
\@writefile{toc}{\contentsline {subsection}{\numberline {2.4}Additional Studies}{19}}
\@writefile{toc}{\contentsline {section}{\numberline {3}Theory of Model}{19}}
\@writefile{lof}{\contentsline {figure}{\numberline {4}{\ignorespaces \textit  {A new resin.io commit being pushed to a user's fleet.}\relax }}{20}}
\citation{OWASPIoTTopTen}
\@writefile{lot}{\contentsline {table}{\numberline {1}{\ignorespaces \textit  {OWASP IoT Top Ten.}\relax }}{22}}
\providecommand*\caption@xref[2]{\@setref\relax\@undefined{#1}}
\newlabel{attacks}{{1}{22}}
\@writefile{toc}{\contentsline {subsection}{\numberline {3.1}Certificates}{22}}
\@writefile{toc}{\contentsline {subsection}{\numberline {3.2}Containers}{23}}
\@writefile{lof}{\contentsline {figure}{\numberline {5}{\ignorespaces \textit  {Docker uses multiple read-only image layers and a single read/write container layer.}\relax }}{23}}
\@writefile{toc}{\contentsline {subsection}{\numberline {3.3}Application Development}{24}}
\@writefile{toc}{\contentsline {subsection}{\numberline {3.4}Maintainability}{25}}
\@writefile{toc}{\contentsline {section}{\numberline {4}Methodology}{25}}
\citation{RPiSpecs}
\@writefile{toc}{\contentsline {subsection}{\numberline {4.1}List of Equipment and Services}{26}}
\@writefile{toc}{\contentsline {subsection}{\numberline {4.2}Configuration \& Topology}{28}}
\@writefile{lof}{\contentsline {figure}{\numberline {6}{\ignorespaces \textit  {Mockup of cluster communication structure.}\relax }}{29}}
\@writefile{toc}{\contentsline {subsection}{\numberline {4.3}Watchdogs}{30}}
\@writefile{toc}{\contentsline {subsection}{\numberline {4.4}Database Design}{32}}
\@writefile{lof}{\contentsline {figure}{\numberline {7}{\ignorespaces \textit  {The basic design of the PostgreSQL database.}\relax }}{33}}
\@writefile{toc}{\contentsline {subsection}{\numberline {4.5}Initialization and Post-Initialization}{34}}
\@writefile{toc}{\contentsline {subsection}{\numberline {4.6}Application Development}{37}}
\@writefile{lof}{\contentsline {figure}{\numberline {8}{\ignorespaces \textit  {The web server example page.}\relax }}{38}}
\@writefile{toc}{\contentsline {section}{\numberline {5}Analysis}{38}}
\@writefile{toc}{\contentsline {subsection}{\numberline {5.1}Future Work}{39}}
\@writefile{lot}{\contentsline {table}{\numberline {2}{\ignorespaces \textit  {Information about the four proposed attacks.}\relax }}{40}}
\newlabel{attacks}{{2}{40}}
\@writefile{toc}{\contentsline {subsection}{\numberline {5.2}Insufficient Authentication}{40}}
\@writefile{toc}{\contentsline {subsection}{\numberline {5.3}Lack of Transport Encryption}{41}}
\@writefile{toc}{\contentsline {subsection}{\numberline {5.4}Insecure Network Services}{41}}
\citation{MostVulnerablePorts}
\@writefile{toc}{\contentsline {subsection}{\numberline {5.5}Poor Physical Security}{42}}
\bibcite{BostonConsulting}{1}
\@writefile{toc}{\contentsline {section}{\numberline {6}Conclusion}{43}}
\bibcite{PlatformChoices}{2}
\bibcite{Mirai}{3}
\bibcite{TopFiveAttacks}{4}
\bibcite{JeepChrysler}{5}
\bibcite{hypriotos}{6}
\bibcite{django}{7}
\bibcite{TwentyConsiderations}{8}
\bibcite{DDoSInIoT}{9}
\bibcite{HPStudy}{10}
\bibcite{AbbottPacemaker}{11}
\bibcite{OwletBabyMonitor}{12}
\bibcite{TrendnetWebcam}{13}
\bibcite{IoTisWildlyInsecure}{14}
\bibcite{RunningContainersOnBareMetal}{15}
\bibcite{ContainerBasedEdgeCloud}{16}
\bibcite{EvaluationOfDocker}{17}
\bibcite{EvaluatingPerformance}{18}
\bibcite{DockerSecurity}{19}
\bibcite{DockerSwarmOverview}{20}
\bibcite{SecurityConsiderationsDockerSwarm}{21}
\bibcite{DockerVSKubernetesVSMesos}{22}
\bibcite{DockerVSKubernetes}{23}
\bibcite{Mesos}{24}
\bibcite{SSLAndTLSDeploymentBestPractices}{25}
\bibcite{CertificateRevocationBroken}{26}
\bibcite{IIoT}{27}
\bibcite{Editorial}{28}
\bibcite{FogMakesSense}{29}
\bibcite{ResinHowItWorks}{30}
\bibcite{OWASPIoTTopTen}{31}
\bibcite{RPiSpecs}{32}
\bibcite{HSTS}{33}
\bibcite{MostVulnerablePorts}{34}
\@writefile{toc}{\contentsline {section}{\numberline {7}Appendix}{47}}
\@writefile{toc}{\contentsline {subsection}{\numberline {7.1}Appendix A: Configuration File Template}{47}}
\@writefile{lot}{\contentsline {table}{\numberline {3}{\ignorespaces \textit  {Tags for the program's regular configuration file.}\relax }}{47}}
\newlabel{attacks}{{3}{47}}
\@writefile{lot}{\contentsline {table}{\numberline {4}{\ignorespaces \textit  {Tags for the secret configuration file.}\relax }}{48}}
\newlabel{attacks}{{4}{48}}
\@writefile{lot}{\contentsline {table}{\numberline {5}{\ignorespaces \textit  {Tags for the device configuration file.}\relax }}{48}}
\newlabel{attacks}{{5}{48}}
\@writefile{toc}{\contentsline {subsection}{\numberline {7.2}Appendix B: Pseudocode}{48}}
